[gd_scene load_steps=1 format=2]

[sub_resource id=1 type="Shader"]

resource_name = "Shader Nodetree"
code = "shader_type spatial;
render_mode blend_mix, depth_draw_always, cull_back, diffuse_burley, specular_schlick_ggx;



void node_bsdf_principled(vec4 color, float subsurface, vec4 subsurface_color,
        float metallic, float specular, float roughness, float clearcoat,
        float clearcoat_roughness, float anisotropy, float transmission,
        float IOR, out vec3 albedo, out float sss_strength_out,
        out float metallic_out, out float specular_out,
        out float roughness_out, out float clearcoat_out,
        out float clearcoat_gloss_out, out float anisotropy_out,
        out float transmission_out, out float ior) {
    metallic = clamp(metallic, 0.0, 1.0);
    transmission = clamp(transmission, 0.0, 1.0);

    subsurface = subsurface * (1.0 - metallic);

    albedo = mix(color.rgb, subsurface_color.rgb, subsurface);
    sss_strength_out = subsurface;
    metallic_out = metallic;
    specular_out = pow((IOR - 1.0)/(IOR + 1.0), 2)/0.08;
    roughness_out = roughness;
    clearcoat_out = clearcoat * (1.0 - transmission);
    clearcoat_gloss_out = 1.0 - clearcoat_roughness;
    anisotropy_out = clamp(anisotropy, 0.0, 1.0);
    transmission_out = (1.0 - transmission) * (1.0 - metallic);
    ior = IOR;
}

void vertex () {
}

void fragment () {
	
	// node: 'Attribute'
	// type: 'ShaderNodeAttribute'
	// input sockets handling
	// output sockets definitions
	
	// Warn: node not supported
	
	
	// node: 'Principled BSDF'
	// type: 'ShaderNodeBsdfPrincipled'
	// input sockets handling
	vec4 node1_in0_basecolor = vec4(0.800000011920929, 0.800000011920929,
		0.800000011920929, 1.0);
	float node1_in1_subsurface = float(0.0);
	vec3 node1_in2_subsurfaceradius = vec3(1.0, 0.20000000298023224,
		0.10000000149011612);
	vec4 node1_in3_subsurfacecolor = vec4(0.800000011920929, 0.800000011920929,
		0.800000011920929, 1.0);
	float node1_in4_metallic = float(0.0);
	float node1_in5_specular = float(0.5);
	float node1_in6_speculartint = float(0.0);
	float node1_in7_roughness = float(0.5);
	float node1_in8_anisotropic = float(0.0);
	float node1_in9_anisotropicrotation = float(0.0);
	float node1_in10_sheen = float(0.0);
	float node1_in11_sheentint = float(0.5);
	float node1_in12_clearcoat = float(0.0);
	float node1_in13_clearcoatroughness = float(0.029999999329447746);
	float node1_in14_ior = float(1.4500000476837158);
	float node1_in15_transmission = float(0.0);
	float node1_in16_transmissionroughness = float(0.0);
	vec4 node1_in17_emission = vec4(0.0, 0.0, 0.0, 1.0);
	float node1_in18_alpha = float(1.0);
	vec3 node1_in19_normal = NORMAL;
	vec3 node1_in20_clearcoatnormal = vec3(0.0, 0.0, 0.0);
	vec3 node1_in21_tangent = TANGENT;
	// output sockets definitions
	vec3 node1_bsdf_out0_albedo;
	float node1_bsdf_out1_sss_strength;
	float node1_bsdf_out3_specular;
	float node1_bsdf_out2_metallic;
	float node1_bsdf_out4_roughness;
	float node1_bsdf_out5_clearcoat;
	float node1_bsdf_out6_clearcoat_gloss;
	float node1_bsdf_out7_anisotropy;
	float node1_bsdf_out8_transmission;
	float node1_bsdf_out9_ior;
	
	node_bsdf_principled(node1_in0_basecolor, node1_in1_subsurface,
		node1_in3_subsurfacecolor, node1_in4_metallic, node1_in5_specular,
		node1_in7_roughness, node1_in12_clearcoat, node1_in13_clearcoatroughness,
		node1_in8_anisotropic, node1_in15_transmission, node1_in14_ior,
		node1_bsdf_out0_albedo, node1_bsdf_out1_sss_strength, node1_bsdf_out2_metallic,
		node1_bsdf_out3_specular, node1_bsdf_out4_roughness, node1_bsdf_out5_clearcoat,
		node1_bsdf_out6_clearcoat_gloss, node1_bsdf_out7_anisotropy,
		node1_bsdf_out8_transmission, node1_bsdf_out9_ior);
	
	
	ALBEDO = node1_bsdf_out0_albedo;
	SSS_STRENGTH = node1_bsdf_out1_sss_strength;
	SPECULAR = node1_bsdf_out3_specular;
	METALLIC = node1_bsdf_out2_metallic;
	ROUGHNESS = node1_bsdf_out4_roughness;
	CLEARCOAT = node1_bsdf_out5_clearcoat;
	CLEARCOAT_GLOSS = node1_bsdf_out6_clearcoat_gloss;
	NORMAL = node1_in19_normal;
	// uncomment it when you need it
	// TRANSMISSION = vec3(1.0, 1.0, 1.0) * node1_bsdf_out8_transmission;
	// uncomment it when you are modifing TANGENT
	// TANGENT = normalize(cross(cross(node1_in21_tangent, NORMAL), NORMAL));
	// BINORMAL = cross(TANGENT, NORMAL);
	// uncomment it when you have tangent(UV) set
	// ANISOTROPY = node1_bsdf_out7_anisotropy;
}
"

[sub_resource id=2 type="ShaderMaterial"]

resource_name = ""
shader = SubResource(1)

[sub_resource id=3 type="ArrayMesh"]

resource_name = "Cylinder"
surfaces/0 = {
	"material":SubResource(2),
	"primitive":4,
	"arrays":[
		Vector3Array(0.00652701, 1.28598, -0.0515869, 0.103683, 0.712692, -0.0718253, -0.0254828, 0.712692, -0.134028, 0.0571456, 1.28598, -0.0272102, 0.135584, 0.712692, 0.0679435, 0.0696473, 1.28598, 0.0275635, 0.0461988, 0.712692, 0.180029, 0.0346182, 1.28598, 0.0714887, -0.0971643, 0.712692, 0.180029, -0.0215642, 1.28598, 0.0714887, -0.18655, 0.712692, 0.0679435, 0.00652701, 1.28598, -0.0515869, -0.0565933, 1.28598, 0.0275635, 0.0346182, 1.28598, 0.0714887, -0.0565933, 1.28598, 0.0275635, -0.154649, 0.712692, -0.0718253, -0.0440916, 1.28598, -0.0272102, -0.0254828, 0.712692, -0.134028, 0.0461988, 0.712692, 0.180029, -0.0971643, 0.712692, 0.180029, -0.18655, 0.712692, 0.0679435, -0.213473, 0.860273, 0.233157, -0.17833, 0.951999, -0.171701, -0.213473, 0.860273, -0.206843, 0.226527, 0.860273, 0.233157, -0.160795, -0.00152986, 0.180479, 0.173849, -0.00152986, 0.180479, -0.213473, 0.860273, 0.233157, -0.160795, -0.00152986, -0.154166, -0.160795, -0.00152986, 0.180479, 0.173849, -0.00152986, -0.154166, -0.160795, -0.00152986, 0.180479, -0.160795, -0.00152986, -0.154166, 0.226527, 0.860273, -0.206843, 0.173849, -0.00152986, 0.180479, 0.173849, -0.00152986, -0.154166, -0.213473, 0.860273, -0.206843, 0.173849, -0.00152986, -0.154166, -0.160795, -0.00152986, -0.154166, -0.17833, 0.951999, 0.198014, -0.197516, 1.04005, -0.190886, -0.17833, 0.951999, -0.171701, 0.226527, 0.860273, -0.206843, 0.191384, 0.951999, 0.198014, 0.226527, 0.860273, 0.233157, -0.213473, 0.860273, -0.206843, 0.191384, 0.951999, -0.171701, 0.226527, 0.860273, -0.206843, 0.226527, 0.860273, 0.233157, -0.17833, 0.951999, 0.198014, -0.213473, 0.860273, 0.233157, -0.197516, 1.04005, 0.217199, -0.125945, 1.25129, -0.119315, -0.197516, 1.04005, -0.190886, 0.191384, 0.951999, 0.198014, -0.197516, 1.04005, 0.217199, -0.17833, 0.951999, 0.198014, -0.17833, 0.951999, -0.171701, 0.21057, 1.04005, -0.190886, 0.191384, 0.951999, -0.171701, 0.191384, 0.951999, -0.171701, 0.21057, 1.04005, 0.217199, 0.191384, 0.951999, 0.198014, -0.125945, 1.25129, -0.119315, 0.138999, 1.25129, 0.145629, 0.138999, 1.25129, -0.119315, 0.21057, 1.04005, 0.217199, -0.125945, 1.25129, 0.145629, -0.197516, 1.04005, 0.217199, -0.197516, 1.04005, -0.190886, 0.138999, 1.25129, -0.119315, 0.21057, 1.04005, -0.190886, 0.21057, 1.04005, -0.190886, 0.138999, 1.25129, 0.145629, 0.21057, 1.04005, 0.217199, 0.0696473, 1.28598, 0.0275635, 0.0571456, 1.28598, -0.0272102, 0.00652701, 1.28598, -0.0515869, -0.0440916, 1.28598, -0.0272102, -0.0215642, 1.28598, 0.0714887, 0.0696473, 1.28598, 0.0275635, 0.00652701, 1.28598, -0.0515869, -0.154649, 0.712692, -0.0718253, -0.0254828, 0.712692, -0.134028, 0.103683, 0.712692, -0.0718253, 0.135584, 0.712692, 0.0679435, -0.17833, 0.951999, 0.198014, 0.226527, 0.860273, 0.233157, -0.213473, 0.860273, 0.233157, -0.160795, -0.00152986, 0.180479, -0.213473, 0.860273, 0.233157, -0.213473, 0.860273, -0.206843, -0.160795, -0.00152986, -0.154166, 0.173849, -0.00152986, -0.154166, 0.173849, -0.00152986, 0.180479, -0.160795, -0.00152986, 0.180479, 0.226527, 0.860273, 0.233157, -0.213473, 0.860273, -0.206843, 0.226527, 0.860273, -0.206843, 0.173849, -0.00152986, -0.154166, -0.17833, 0.951999, 0.198014, -0.197516, 1.04005, 0.217199, -0.197516, 1.04005, -0.190886, 0.226527, 0.860273, -0.206843, 0.191384, 0.951999, -0.171701, 0.191384, 0.951999, 0.198014, -0.213473, 0.860273, -0.206843, -0.17833, 0.951999, -0.171701, 0.191384, 0.951999, -0.171701, 0.226527, 0.860273, 0.233157, 0.191384, 0.951999, 0.198014, -0.17833, 0.951999, 0.198014, -0.197516, 1.04005, 0.217199, -0.125945, 1.25129, 0.145629, -0.125945, 1.25129, -0.119315, 0.191384, 0.951999, 0.198014, 0.21057, 1.04005, 0.217199, -0.197516, 1.04005, 0.217199, -0.17833, 0.951999, -0.171701, -0.197516, 1.04005, -0.190886, 0.21057, 1.04005, -0.190886, 0.191384, 0.951999, -0.171701, 0.21057, 1.04005, -0.190886, 0.21057, 1.04005, 0.217199, -0.125945, 1.25129, 0.145629, 0.21057, 1.04005, 0.217199, 0.138999, 1.25129, 0.145629, -0.125945, 1.25129, 0.145629, -0.197516, 1.04005, -0.190886, -0.125945, 1.25129, -0.119315, 0.138999, 1.25129, -0.119315, 0.21057, 1.04005, -0.190886, 0.138999, 1.25129, -0.119315, 0.138999, 1.25129, 0.145629),
		Vector3Array(0.0119327, 0.673879, -0.738731, 0.636067, -0.578967, -0.510056, -0.0118717, -0.566668, -0.823817, 0.58684, 0.662709, -0.465163, 0.797021, -0.572802, 0.191321, 0.727256, 0.668264, 0.156499, 0.349193, -0.55327, 0.756249, 0.327708, 0.686392, 0.64919, -0.373241, -0.53563, 0.757469, -0.30137, 0.703482, 0.643605, -0.824366, -0.532456, 0.192022, 0.0, 1.0, 0.0, 0.0, 1.0, 0.0, 0.0, 1.0, 0.0, -0.690664, 0.706595, 0.153722, -0.66274, -0.545915, -0.512558, -0.555376, 0.693411, -0.458998, -0.0118717, -0.566668, -0.823817, 0.349193, -0.55327, 0.756249, -0.373241, -0.53563, 0.757469, -0.824366, -0.532456, 0.192022, -0.933811, 0.357767, 0.0, -0.933811, 0.357767, 0.0, -0.933811, 0.357767, 0.0, 0.0, -0.0610111, 0.998137, 0.0, -0.0610111, 0.998137, 0.0, -0.0610111, 0.998137, -0.998137, -0.061011, 0.0, -0.998137, -0.061011, 0.0, -0.998137, -0.061011, 0.0, 0.0, -1.0, 0.0, 0.0, -1.0, 0.0, 0.0, -1.0, 0.0, 0.998137, -0.061011, 0.0, 0.998137, -0.061011, 0.0, 0.998137, -0.061011, 0.0, 0.0, -0.061011, -0.998137, 0.0, -0.061011, -0.998137, 0.0, -0.061011, -0.998137, -0.977076, -0.212891, 0.0, -0.977076, -0.212891, 0.0, -0.977076, -0.212891, 0.0, 0.93381, 0.357768, 0.0, 0.93381, 0.357768, 0.0, 0.93381, 0.357768, 0.0, 0.0, 0.357767, -0.933811, 0.0, 0.357767, -0.933811, 0.0, 0.357767, -0.933811, 0.0, 0.357768, 0.93381, 0.0, 0.357768, 0.93381, 0.0, 0.357768, 0.93381, -0.947114, 0.320898, 0.0, -0.947114, 0.320898, 0.0, -0.947114, 0.320898, 0.0, 0.0, -0.212891, 0.977076, 0.0, -0.212891, 0.977076, 0.0, -0.212891, 0.977076, 0.0, -0.21289, -0.977076, 0.0, -0.21289, -0.977076, 0.0, -0.21289, -0.977076, 0.977076, -0.212891, 0.0, 0.977076, -0.212891, 0.0, 0.977076, -0.212891, 0.0, 0.0, 1.0, 0.0, 0.0, 1.0, 0.0, 0.0, 1.0, 0.0, 0.0, 0.320898, 0.947114, 0.0, 0.320898, 0.947114, 0.0, 0.320898, 0.947114, 0.0, 0.320898, -0.947114, 0.0, 0.320898, -0.947114, 0.0, 0.320898, -0.947114, 0.947114, 0.320898, 0.0, 0.947114, 0.320898, 0.0, 0.947114, 0.320898, 0.0, 3.01909e-06, 1.0, 0.0, 3.01909e-06, 1.0, 0.0, 3.01909e-06, 1.0, 0.0, 0.0, 1.0, 0.0, 0.0, 1.0, 0.0, 0.0, 1.0, 0.0, 0.0119327, 0.673879, -0.738731, -0.66274, -0.545915, -0.512558, -0.0118717, -0.566668, -0.823817, 0.636067, -0.578967, -0.510056, 0.797021, -0.572802, 0.191321, -0.933811, 0.357767, 0.0, 0.0, -0.061011, 0.998137, 0.0, -0.061011, 0.998137, 0.0, -0.061011, 0.998137, -0.998137, -0.061011, 0.0, -0.998137, -0.061011, 0.0, -0.998137, -0.061011, 0.0, 0.0, -1.0, 0.0, 0.0, -1.0, 0.0, 0.0, -1.0, 0.0, 0.998137, -0.061011, 0.0, 0.0, -0.061011, -0.998137, 0.0, -0.061011, -0.998137, 0.0, -0.061011, -0.998137, -0.977076, -0.212891, 0.0, -0.977076, -0.212891, 0.0, -0.977076, -0.212891, 0.0, 0.933811, 0.357768, 0.0, 0.933811, 0.357768, 0.0, 0.933811, 0.357768, 0.0, 0.0, 0.357768, -0.933811, 0.0, 0.357768, -0.933811, 0.0, 0.357768, -0.933811, 0.0, 0.357768, 0.933811, 0.0, 0.357768, 0.933811, 0.0, 0.357768, 0.933811, -0.947114, 0.320898, 0.0, -0.947114, 0.320898, 0.0, -0.947114, 0.320898, 0.0, 0.0, -0.212891, 0.977076, 0.0, -0.212891, 0.977076, 0.0, -0.212891, 0.977076, 0.0, -0.21289, -0.977076, 0.0, -0.21289, -0.977076, 0.0, -0.21289, -0.977076, 0.977076, -0.212891, 0.0, 0.977076, -0.212891, 0.0, 0.977076, -0.212891, 0.0, 0.0, 1.0, 0.0, 0.0, 0.320898, 0.947114, 0.0, 0.320898, 0.947114, 0.0, 0.320898, 0.947114, 0.0, 0.320898, -0.947114, 0.0, 0.320898, -0.947114, 0.0, 0.320898, -0.947114, 0.947114, 0.320898, 0.0, 0.947114, 0.320898, 0.0, 0.947114, 0.320898, 0.0),
		FloatArray(-0.951468, -0.219549, -0.215653, 1.0, -0.625571, 4.13914e-05, -0.780167, 1.0, -0.964327, 0.224369, -0.140473, 1.0, -0.621377, 0.000283687, -0.783512, 1.0, 0.23337, -6.36659e-05, -0.972388, 1.0, 0.211462, -0.00123782, -0.977385, 1.0, 0.907948, 0.000214837, -0.419082, 1.0, 0.893603, -0.00211135, -0.448854, 1.0, 0.89692, 0.000334925, 0.442192, 1.0, 0.905052, -0.00137729, 0.425299, 1.0, 0.226979, -0.000193058, 0.9739, 1.0, 1.0, 0.0, 2.18255e-09, 1.0, 1.0, 0.0, 2.98037e-08, 1.0, 1.0, 0.0, -6.19652e-09, 1.0, 0.217924, 0.000687015, 0.975965, 1.0, -0.611604, -0.000335456, 0.791164, 1.0, -0.635504, 0.00208557, 0.772094, 1.0, -0.964956, -0.209487, 0.158035, 1.0, 0.937054, 0.206177, -0.281818, -1.0, 0.927737, -0.215493, 0.304742, -1.0, 0.56608, -0.775464, 0.279659, -1.0, 1.0, 0.0, 0.0, -1.0, 1.0, 0.0, 0.0, -1.0, 1.0, 0.0, 0.0, -1.0, 0.0608978, 0.996284, 0.0608978, 1.0, 0.0608978, 0.996285, 0.0608978, 1.0, 0.0608978, 0.996285, 0.0608978, 1.0, -0.0608978, 0.996284, 0.0608978, 1.0, -0.0608978, 0.996285, 0.0608978, 1.0, -0.0608978, 0.996284, 0.0608978, 1.0, 1.0, 0.0, 0.0, 1.0, 1.0, 0.0, 0.0, 1.0, 1.0, 0.0, 0.0, 1.0, 0.0609801, 0.997631, 0.0318403, 1.0, 0.0609921, 0.997827, -0.0249125, 1.0, 0.0608978, 0.996284, -0.0608978, 1.0, -0.0608978, 0.996284, -0.0608978, 1.0, -0.0608978, 0.996285, -0.0608978, 1.0, -0.0608978, 0.996284, -0.0608978, 1.0, 1.0, 0.0, 0.0, -1.0, 1.0, 0.0, 0.0, -1.0, 1.0, 0.0, 0.0, -1.0, 1.0, 0.0, 0.0, -1.0, 1.0, 0.0, 0.0, -1.0, 1.0, 0.0, 0.0, -1.0, 1.0, 0.0, 0.0, -1.0, 1.0, 0.0, 0.0, -1.0, 1.0, 0.0, 0.0, -1.0, 1.0, 0.0, 0.0, -1.0, 1.0, 0.0, 0.0, -1.0, 1.0, 0.0, 0.0, -1.0, 1.0, 0.0, 0.0, -1.0, 1.0, 0.0, 0.0, -1.0, 1.0, 0.0, 0.0, -1.0, 1.0, 0.0, 0.0, -1.0, 1.0, 0.0, 0.0, -1.0, 1.0, 0.0, 0.0, -1.0, 1.0, 0.0, 0.0, -1.0, 1.0, 0.0, 0.0, -1.0, 1.0, 0.0, 0.0, -1.0, 1.0, 0.0, 0.0, -1.0, 1.0, 0.0, 0.0, -1.0, 1.0, 0.0, 0.0, -1.0, -1.0, 0.0, 0.0, 1.0, -1.0, 0.0, 0.0, 1.0, -1.0, 0.0, 0.0, 1.0, 1.0, 0.0, 0.0, -1.0, 1.0, 0.0, 0.0, -1.0, 1.0, 0.0, 0.0, -1.0, 1.0, 0.0, 0.0, -1.0, 1.0, 0.0, 0.0, -1.0, 1.0, 0.0, 0.0, -1.0, 1.0, 0.0, 0.0, -1.0, 1.0, 0.0, 0.0, -1.0, 1.0, 0.0, 0.0, -1.0, 1.0, -3.01909e-06, 4.07223e-07, 1.0, 1.0, -3.01909e-06, 4.07223e-07, 1.0, 1.0, -3.01909e-06, 4.07223e-07, 1.0, 1.0, 0.0, -1.01806e-07, 1.0, 1.0, 0.0, -5.09029e-08, 1.0, 1.0, 0.0, -9.06156e-08, 1.0, -0.950699, 0.236599, 0.200482, 1.0, 0.74886, -0.483148, -0.453626, -1.0, 0.99993, -0.00672781, -0.00978078, -1.0, 0.77165, 0.477259, 0.420453, -1.0, 0.603978, 0.755948, -0.252493, -1.0, 1.0, 0.0, 0.0, -1.0, -0.0608978, 0.996285, 0.0608978, 1.0, -0.0608978, 0.996285, 0.0608978, 1.0, -0.0608978, 0.996285, 0.0608978, 1.0, -0.0608978, 0.996285, -0.0608978, 1.0, -0.0608978, 0.996285, -0.0608978, 1.0, -0.0608978, 0.996285, -0.0608978, 1.0, 1.0, 0.0, 0.0, 1.0, 1.0, 0.0, 0.0, 1.0, 1.0, 0.0, 0.0, 1.0, 0.0608978, 0.996285, 0.0608978, 1.0, 0.0608978, 0.996285, -0.0608978, 1.0, 0.0608978, 0.996285, -0.0608978, 1.0, 0.0608978, 0.996285, -0.0608978, 1.0, 1.0, 0.0, 0.0, -1.0, 1.0, 0.0, 0.0, -1.0, 1.0, 0.0, 0.0, -1.0, 1.0, 0.0, 0.0, -1.0, 1.0, 0.0, 0.0, -1.0, 1.0, 0.0, 0.0, -1.0, 1.0, 0.0, 0.0, -1.0, 1.0, 0.0, 0.0, -1.0, 1.0, 0.0, 0.0, -1.0, 1.0, 0.0, 0.0, -1.0, 1.0, 0.0, 0.0, -1.0, 1.0, 0.0, 0.0, -1.0, 1.0, 0.0, 0.0, -1.0, 1.0, 0.0, 0.0, -1.0, 1.0, 0.0, 0.0, -1.0, 1.0, 0.0, 0.0, -1.0, 1.0, 0.0, 0.0, -1.0, 1.0, 0.0, 0.0, -1.0, 1.0, 0.0, 0.0, -1.0, 1.0, 0.0, 0.0, -1.0, 1.0, 0.0, 0.0, -1.0, 1.0, 0.0, 0.0, -1.0, 1.0, 0.0, 0.0, -1.0, 1.0, 0.0, 0.0, -1.0, -1.0, 0.0, 0.0, 1.0, 1.0, 0.0, 0.0, -1.0, 1.0, 0.0, 0.0, -1.0, 1.0, 0.0, 0.0, -1.0, 1.0, 0.0, 0.0, -1.0, 1.0, 0.0, 0.0, -1.0, 1.0, 0.0, 0.0, -1.0, 1.0, 0.0, 0.0, -1.0, 1.0, 0.0, 0.0, -1.0, 1.0, 0.0, 0.0, -1.0),
		ColorArray(0.728438, 0.341576, 0.347973, 1.0, 0.728438, 0.341576, 0.347973, 1.0, 0.728438, 0.341576, 0.347973, 1.0, 0.728438, 0.341576, 0.347973, 1.0, 0.728438, 0.341576, 0.347973, 1.0, 0.728438, 0.341576, 0.347973, 1.0, 0.728438, 0.341576, 0.347973, 1.0, 0.728438, 0.341576, 0.347973, 1.0, 0.728438, 0.341576, 0.347973, 1.0, 0.728438, 0.341576, 0.347973, 1.0, 0.728438, 0.341576, 0.347973, 1.0, 0.728438, 0.341576, 0.347973, 1.0, 0.728438, 0.341576, 0.347973, 1.0, 0.728438, 0.341576, 0.347973, 1.0, 0.728438, 0.341576, 0.347973, 1.0, 0.728438, 0.341576, 0.347973, 1.0, 0.728438, 0.341576, 0.347973, 1.0, 0.728438, 0.341576, 0.347973, 1.0, 0.728438, 0.341576, 0.347973, 1.0, 0.728438, 0.341576, 0.347973, 1.0, 0.728438, 0.341576, 0.347973, 1.0, 0.613363, 0.662284, 0.728438, 1.0, 0.613363, 0.662284, 0.728438, 1.0, 0.613363, 0.662284, 0.728438, 1.0, 0.613363, 0.662284, 0.728438, 1.0, 0.613363, 0.662284, 0.728438, 1.0, 0.613363, 0.662284, 0.728438, 1.0, 0.613363, 0.662284, 0.728438, 1.0, 0.613363, 0.662284, 0.728438, 1.0, 0.613363, 0.662284, 0.728438, 1.0, 0.613363, 0.662284, 0.728438, 1.0, 0.613363, 0.662284, 0.728438, 1.0, 0.613363, 0.662284, 0.728438, 1.0, 0.613363, 0.662284, 0.728438, 1.0, 0.613363, 0.662284, 0.728438, 1.0, 0.613363, 0.662284, 0.728438, 1.0, 0.613363, 0.662284, 0.728438, 1.0, 0.613363, 0.662284, 0.728438, 1.0, 0.613363, 0.662284, 0.728438, 1.0, 0.613363, 0.662284, 0.728438, 1.0, 0.613363, 0.662284, 0.728438, 1.0, 0.613363, 0.662284, 0.728438, 1.0, 0.613363, 0.662284, 0.728438, 1.0, 0.613363, 0.662284, 0.728438, 1.0, 0.613363, 0.662284, 0.728438, 1.0, 0.613363, 0.662284, 0.728438, 1.0, 0.613363, 0.662284, 0.728438, 1.0, 0.613363, 0.662284, 0.728438, 1.0, 0.613363, 0.662284, 0.728438, 1.0, 0.613363, 0.662284, 0.728438, 1.0, 0.613363, 0.662284, 0.728438, 1.0, 0.613363, 0.662284, 0.728438, 1.0, 0.613363, 0.662284, 0.728438, 1.0, 0.613363, 0.662284, 0.728438, 1.0, 0.613363, 0.662284, 0.728438, 1.0, 0.613363, 0.662284, 0.728438, 1.0, 0.613363, 0.662284, 0.728438, 1.0, 0.613363, 0.662284, 0.728438, 1.0, 0.613363, 0.662284, 0.728438, 1.0, 0.613363, 0.662284, 0.728438, 1.0, 0.613363, 0.662284, 0.728438, 1.0, 0.613363, 0.662284, 0.728438, 1.0, 0.613363, 0.662284, 0.728438, 1.0, 0.613363, 0.662284, 0.728438, 1.0, 0.613363, 0.662284, 0.728438, 1.0, 0.613363, 0.662284, 0.728438, 1.0, 0.613363, 0.662284, 0.728438, 1.0, 0.613363, 0.662284, 0.728438, 1.0, 0.613363, 0.662284, 0.728438, 1.0, 0.613363, 0.662284, 0.728438, 1.0, 0.613363, 0.662284, 0.728438, 1.0, 0.613363, 0.662284, 0.728438, 1.0, 0.613363, 0.662284, 0.728438, 1.0, 0.613363, 0.662284, 0.728438, 1.0, 0.613363, 0.662284, 0.728438, 1.0, 0.728438, 0.341576, 0.347973, 1.0, 0.728438, 0.341576, 0.347973, 1.0, 0.728438, 0.341576, 0.347973, 1.0, 0.728438, 0.341576, 0.347973, 1.0, 0.728438, 0.341576, 0.347973, 1.0, 0.728438, 0.341576, 0.347973, 1.0, 0.728438, 0.341576, 0.347973, 1.0, 0.728438, 0.341576, 0.347973, 1.0, 0.728438, 0.341576, 0.347973, 1.0, 0.728438, 0.341576, 0.347973, 1.0, 0.728438, 0.341576, 0.347973, 1.0, 0.613363, 0.662284, 0.728438, 1.0, 0.613363, 0.662284, 0.728438, 1.0, 0.613363, 0.662284, 0.728438, 1.0, 0.613363, 0.662284, 0.728438, 1.0, 0.613363, 0.662284, 0.728438, 1.0, 0.613363, 0.662284, 0.728438, 1.0, 0.613363, 0.662284, 0.728438, 1.0, 0.613363, 0.662284, 0.728438, 1.0, 0.613363, 0.662284, 0.728438, 1.0, 0.613363, 0.662284, 0.728438, 1.0, 0.613363, 0.662284, 0.728438, 1.0, 0.613363, 0.662284, 0.728438, 1.0, 0.613363, 0.662284, 0.728438, 1.0, 0.613363, 0.662284, 0.728438, 1.0, 0.613363, 0.662284, 0.728438, 1.0, 0.613363, 0.662284, 0.728438, 1.0, 0.613363, 0.662284, 0.728438, 1.0, 0.613363, 0.662284, 0.728438, 1.0, 0.613363, 0.662284, 0.728438, 1.0, 0.613363, 0.662284, 0.728438, 1.0, 0.613363, 0.662284, 0.728438, 1.0, 0.613363, 0.662284, 0.728438, 1.0, 0.613363, 0.662284, 0.728438, 1.0, 0.613363, 0.662284, 0.728438, 1.0, 0.613363, 0.662284, 0.728438, 1.0, 0.613363, 0.662284, 0.728438, 1.0, 0.613363, 0.662284, 0.728438, 1.0, 0.613363, 0.662284, 0.728438, 1.0, 0.613363, 0.662284, 0.728438, 1.0, 0.613363, 0.662284, 0.728438, 1.0, 0.613363, 0.662284, 0.728438, 1.0, 0.613363, 0.662284, 0.728438, 1.0, 0.613363, 0.662284, 0.728438, 1.0, 0.613363, 0.662284, 0.728438, 1.0, 0.613363, 0.662284, 0.728438, 1.0, 0.613363, 0.662284, 0.728438, 1.0, 0.613363, 0.662284, 0.728438, 1.0, 0.613363, 0.662284, 0.728438, 1.0, 0.613363, 0.662284, 0.728438, 1.0, 0.613363, 0.662284, 0.728438, 1.0, 0.613363, 0.662284, 0.728438, 1.0, 0.613363, 0.662284, 0.728438, 1.0, 0.613363, 0.662284, 0.728438, 1.0, 0.613363, 0.662284, 0.728438, 1.0, 0.613363, 0.662284, 0.728438, 1.0, 0.613363, 0.662284, 0.728438, 1.0, 0.613363, 0.662284, 0.728438, 1.0, 0.613363, 0.662284, 0.728438, 1.0),
		Vector2Array(1.0, 0.0, 0.857143, 0.5, 1.0, 0.5, 0.857143, 0.0, 0.714286, 0.5, 0.714286, 0.0, 0.571429, 0.5, 0.571429, 0.0, 0.428571, 0.5, 0.428571, 0.0, 0.285714, 0.5, 0.25, 0.51, 0.0160173, 0.803405, 0.354132, 0.966233, 0.285714, 0.0, 0.142857, 0.5, 0.142857, 0.0, 2.98023e-08, 0.5, 0.854132, 0.966233, 0.645868, 0.966233, 0.516017, 0.803405, 0.625, 1.0, 0.625, 0.75, 0.625, 0.75, 0.625, 0.25, 0.375, 0.0, 0.375, 0.25, 0.625, 1.0, 0.375, 0.75, 0.375, 1.0, 0.375, 0.5, 0.125, 0.25, 0.125, 0.5, 0.625, 0.5, 0.375, 0.25, 0.375, 0.5, 0.625, 0.75, 0.375, 0.5, 0.375, 0.75, 0.625, 1.0, 0.625, 0.75, 0.625, 0.75, 0.625, 0.5, 0.625, 0.25, 0.625, 0.25, 0.625, 0.75, 0.625, 0.5, 0.625, 0.5, 0.625, 0.25, 0.625, 0.0, 0.625, 0.0, 0.625, 1.0, 0.625, 0.75, 0.625, 0.75, 0.625, 0.25, 0.625, 0.0, 0.625, 0.0, 0.625, 0.75, 0.625, 0.5, 0.625, 0.5, 0.625, 0.5, 0.625, 0.25, 0.625, 0.25, 0.875, 0.5, 0.625, 0.25, 0.625, 0.5, 0.625, 0.25, 0.625, 0.0, 0.625, 0.0, 0.625, 0.75, 0.625, 0.5, 0.625, 0.5, 0.625, 0.5, 0.625, 0.25, 0.625, 0.25, 0.483983, 0.803405, 0.43764, 0.600362, 0.25, 0.51, 0.0623604, 0.600362, 0.145868, 0.966233, 0.483983, 0.803405, 2.98023e-08, 0.0, 0.56236, 0.600362, 0.75, 0.51, 0.93764, 0.600362, 0.983983, 0.803405, 0.625, 1.0, 0.625, 0.25, 0.625, 0.0, 0.375, 0.0, 0.625, 1.0, 0.625, 0.75, 0.375, 0.75, 0.375, 0.5, 0.375, 0.25, 0.125, 0.25, 0.625, 0.25, 0.625, 0.75, 0.625, 0.5, 0.375, 0.5, 0.625, 1.0, 0.625, 1.0, 0.625, 0.75, 0.625, 0.5, 0.625, 0.5, 0.625, 0.25, 0.625, 0.75, 0.625, 0.75, 0.625, 0.5, 0.625, 0.25, 0.625, 0.25, 0.625, 0.0, 0.625, 1.0, 0.625, 1.0, 0.625, 0.75, 0.625, 0.25, 0.625, 0.25, 0.625, 0.0, 0.625, 0.75, 0.625, 0.75, 0.625, 0.5, 0.625, 0.5, 0.625, 0.5, 0.625, 0.25, 0.875, 0.25, 0.625, 0.25, 0.625, 0.25, 0.625, 0.0, 0.625, 0.75, 0.625, 0.75, 0.625, 0.5, 0.625, 0.5, 0.625, 0.5, 0.625, 0.25),
		null, ; No UV2,
		null, ; No Bones,
		null, ; No Weights,
		IntArray(0, 2, 1, 3, 1, 4, 5, 4, 6, 7, 6, 8, 9, 8, 10, 11, 13, 12, 14, 10, 15, 16, 15, 17, 18, 20, 19, 21, 23, 22, 24, 26, 25, 27, 29, 28, 30, 32, 31, 33, 35, 34, 36, 38, 37, 39, 41, 40, 42, 44, 43, 45, 47, 46, 48, 50, 49, 51, 53, 52, 54, 56, 55, 57, 59, 58, 60, 62, 61, 63, 65, 64, 66, 68, 67, 69, 71, 70, 72, 74, 73, 0, 1, 3, 3, 4, 5, 5, 6, 7, 7, 8, 9, 9, 10, 14, 75, 77, 76, 11, 12, 78, 12, 13, 79, 13, 11, 80, 14, 15, 16, 16, 17, 81, 82, 20, 83, 83, 20, 84, 84, 20, 85, 85, 20, 18, 21, 22, 86, 87, 89, 88, 90, 92, 91, 93, 95, 94, 33, 34, 96, 97, 99, 98, 100, 102, 101, 103, 105, 104, 106, 108, 107, 109, 111, 110, 112, 114, 113, 115, 117, 116, 118, 120, 119, 121, 123, 122, 63, 64, 124, 125, 127, 126, 128, 130, 129, 131, 133, 132)
	],
	"morph_arrays":[]
}

[node type="Spatial" name="Scene"]

[node name="Cylinder" type="MeshInstance" parent="."]

mesh = SubResource(3)
visible = true
transform = Transform(1.0, 0.0, 0.0, 0.0, 1.0, 0.0, 0.0, 0.0, 1.0, 0.0, 0.0, 0.0)
