<?xml version="1.0" encoding="utf-8"?>
<COLLADA xmlns="http://www.collada.org/2005/11/COLLADASchema" version="1.4.1">
<asset>
	<contributor>
		<author>Anonymous</author>
		<authoring_tool>Collada Exporter for Blender 2.6+, by Juan Linietsky (juan@codenix.com)</authoring_tool>
	</contributor>
	<created>2020-05-22T16:15:45Z</created>
	<modified>2020-05-22T16:15:45Z</modified>
	<unit meter="1.0" name="meter"/>
	<up_axis>Z_UP</up_axis>
</asset>
<library_effects>
	<effect id="id-fx-3" name="celing-fx">
		<profile_COMMON>
			<technique sid="common">
				<blinn>
					<emission>
						<color>  0.0 0.0 0.0 1.0 </color>
					</emission>
					<ambient>
						<color>  0.0 0.0 0.0 1.0 </color>
					</ambient>
					<diffuse>
						<color>  0.640000066757203 0.25378315826927356 0.21276870090914812 1.0 </color>
					</diffuse>
					<specular>
						<color>  0.5 0.5 0.5 1.0 </color>
					</specular>
					<shininess>
						<float>50</float>
					</shininess>
					<reflective>
						<color>  1.0 1.0 1.0 1.0 </color>
					</reflective>
					<index_of_refraction>
						<float>4.0</float>
					</index_of_refraction>
				</blinn>
				<extra>
					<technique profile="FCOLLADA">
					</technique>
					<technique profile="GOOGLEEARTH">
						<double_sided>0</double_sided>
					</technique>
				</extra>
			</technique>
		</profile_COMMON>
	</effect>
	<effect id="id-fx-5" name="wall-fx">
		<profile_COMMON>
			<technique sid="common">
				<blinn>
					<emission>
						<color>  0.0 0.0 0.0 1.0 </color>
					</emission>
					<ambient>
						<color>  0.0 0.0 0.0 1.0 </color>
					</ambient>
					<diffuse>
						<color>  0.4138670982996686 0.1673591757917281 0.04278178278776679 1.0 </color>
					</diffuse>
					<specular>
						<color>  0.5 0.5 0.5 1.0 </color>
					</specular>
					<shininess>
						<float>50</float>
					</shininess>
					<reflective>
						<color>  1.0 1.0 1.0 1.0 </color>
					</reflective>
					<index_of_refraction>
						<float>4.0</float>
					</index_of_refraction>
				</blinn>
				<extra>
					<technique profile="FCOLLADA">
					</technique>
					<technique profile="GOOGLEEARTH">
						<double_sided>0</double_sided>
					</technique>
				</extra>
			</technique>
		</profile_COMMON>
	</effect>
	<effect id="id-fx-7" name="floor-fx">
		<profile_COMMON>
			<technique sid="common">
				<blinn>
					<emission>
						<color>  0.0 0.0 0.0 1.0 </color>
					</emission>
					<ambient>
						<color>  0.0 0.0 0.0 1.0 </color>
					</ambient>
					<diffuse>
						<color>  0.09705938245444568 0.09161981480747183 0.12185788336184444 1.0 </color>
					</diffuse>
					<specular>
						<color>  0.5 0.5 0.5 1.0 </color>
					</specular>
					<shininess>
						<float>50</float>
					</shininess>
					<reflective>
						<color>  1.0 1.0 1.0 1.0 </color>
					</reflective>
					<index_of_refraction>
						<float>4.0</float>
					</index_of_refraction>
				</blinn>
				<extra>
					<technique profile="FCOLLADA">
					</technique>
					<technique profile="GOOGLEEARTH">
						<double_sided>0</double_sided>
					</technique>
				</extra>
			</technique>
		</profile_COMMON>
	</effect>
</library_effects>
<library_materials>
	<material id="id-material-4" name="celing">
		<instance_effect url="#id-fx-3"/>
	</material>
	<material id="id-material-6" name="wall">
		<instance_effect url="#id-fx-5"/>
	</material>
	<material id="id-material-8" name="floor">
		<instance_effect url="#id-fx-7"/>
	</material>
</library_materials>
<library_geometries>
	<geometry id="id-mesh-2" name="MESH.003">
		<mesh>
			<source id="id-mesh-2-positions">
				<float_array id="id-mesh-2-positions-array" count="102"> -8.0 6.0 3.0 -8.0 8.0 1.0 -8.0 6.0 0.0 -6.0 8.0 3.0 -8.0 12.0 3.0 -8.0 8.0 3.0 -6.0 8.0 1.0 -6.0 6.0 3.0 -6.0 6.0 0.0 -6.0 6.0 3.0 -8.0 6.0 0.0 -6.0 6.0 0.0 -6.0 8.0 1.0 -8.0 6.0 0.0 -8.0 8.0 1.0 -6.0 6.0 3.0 -8.0 12.0 3.0 -6.0 12.0 1.0 -8.0 12.0 1.0 -8.0 8.0 3.0 -8.0 12.0 1.0 -6.0 12.0 3.0 -6.0 8.0 3.0 -8.0 8.0 1.0 -6.0 12.0 1.0 -6.0 8.0 1.0 -6.0 12.0 3.0 -8.0 6.0 3.0 -6.0 6.0 0.0 -8.0 6.0 3.0 -6.0 12.0 3.0 -8.0 12.0 3.0 -6.0 12.0 1.0 -8.0 12.0 1.0</float_array>
				<technique_common>
				<accessor source="#id-mesh-2-positions-array" count="34" stride="3">
					<param name="X" type="float"/>
					<param name="Y" type="float"/>
					<param name="Z" type="float"/>
				</accessor>
				</technique_common>
			</source>
			<source id="id-mesh-2-normals">
				<float_array id="id-mesh-2-normals-array" count="102"> -1.0 0.0 0.0 -1.0 0.0 0.0 -1.0 0.0 0.0 0.0 0.0 1.0 0.0 0.0 1.0 0.0 0.0 1.0 1.0 0.0 0.0 1.0 0.0 0.0 1.0 0.0 0.0 0.0 -1.0 0.0 0.0 -1.0 0.0 0.0 -1.0 0.0 0.0 0.4472135901451111 -0.8944271802902222 0.0 0.4472135901451111 -0.8944271802902222 0.0 0.4472135901451111 -0.8944271802902222 0.0 0.0 1.0 0.0 1.0 0.0 0.0 1.0 0.0 0.0 1.0 0.0 -1.0 0.0 0.0 -1.0 0.0 0.0 1.0 0.0 0.0 1.0 0.0 0.0 0.0 0.0 -1.0 0.0 0.0 -1.0 0.0 0.0 -1.0 0.0 0.0 1.0 0.0 -1.0 0.0 0.0 0.4472135901451111 -0.8944271802902222 0.0 0.0 1.0 0.0 1.0 0.0 -1.0 0.0 0.0 1.0 0.0 0.0 0.0 0.0 -1.0</float_array>
				<technique_common>
				<accessor source="#id-mesh-2-normals-array" count="34" stride="3">
					<param name="X" type="float"/>
					<param name="Y" type="float"/>
					<param name="Z" type="float"/>
				</accessor>
				</technique_common>
			</source>
			<source id="id-mesh-2-tangents">
				<float_array id="id-mesh-2-tangents-array" count="102"> 1.0 0.0 0.0 1.0 0.0 0.0 1.0 0.0 0.0 1.0 0.0 0.0 1.0 0.0 0.0 1.0 0.0 0.0 1.0 0.0 0.0 1.0 0.0 0.0 1.0 0.0 0.0 1.0 0.0 0.0 1.0 0.0 0.0 1.0 0.0 0.0 1.0 0.0 0.0 1.0 0.0 0.0 1.0 0.0 0.0 1.0 0.0 0.0 1.0 0.0 0.0 1.0 0.0 0.0 1.0 0.0 0.0 1.0 0.0 0.0 1.0 0.0 0.0 1.0 0.0 0.0 1.0 0.0 0.0 1.0 0.0 0.0 1.0 0.0 0.0 1.0 0.0 0.0 1.0 0.0 0.0 1.0 0.0 0.0 1.0 0.0 0.0 1.0 0.0 0.0 1.0 0.0 0.0 1.0 0.0 0.0 1.0 0.0 0.0 1.0 0.0 0.0</float_array>
				<technique_common>
				<accessor source="#id-mesh-2-tangents-array" count="34" stride="3">
					<param name="X" type="float"/>
					<param name="Y" type="float"/>
					<param name="Z" type="float"/>
				</accessor>
				</technique_common>
			</source>
			<source id="id-mesh-2-bitangents">
				<float_array id="id-mesh-2-bitangents-array" count="102"> -0.0 -0.0 0.0 -0.0 -0.0 0.0 -0.0 -0.0 0.0 -0.0 -1.0 -0.0 -0.0 -1.0 -0.0 -0.0 -1.0 -0.0 -0.0 -0.0 -0.0 -0.0 -0.0 -0.0 -0.0 -0.0 -0.0 0.0 -0.0 -1.0 0.0 -0.0 -1.0 0.0 -0.0 -1.0 -0.0 0.8944271802902222 0.4472135901451111 -0.0 0.8944271802902222 0.4472135901451111 -0.0 0.8944271802902222 0.4472135901451111 -0.0 -1.0 -0.0 -0.0 -0.0 1.0 -0.0 -0.0 1.0 -0.0 -0.0 1.0 -0.0 -0.0 0.0 -0.0 -0.0 0.0 -0.0 -0.0 -0.0 -0.0 -0.0 -0.0 -0.0 1.0 -0.0 -0.0 1.0 -0.0 -0.0 1.0 -0.0 -0.0 -1.0 -0.0 0.0 -0.0 -1.0 -0.0 0.8944271802902222 0.4472135901451111 -0.0 -1.0 -0.0 -0.0 -0.0 1.0 -0.0 -0.0 0.0 -0.0 -0.0 -0.0 -0.0 1.0 -0.0</float_array>
				<technique_common>
				<accessor source="#id-mesh-2-bitangents-array" count="34" stride="3">
					<param name="X" type="float"/>
					<param name="Y" type="float"/>
					<param name="Z" type="float"/>
				</accessor>
				</technique_common>
			</source>
			<source id="id-mesh-2-texcoord-0">
				<float_array id="id-mesh-2-texcoord-0-array" count="68"> 0.0 0.0 0.0 0.0 0.0 0.0 0.0 0.0 0.0 0.0 0.0 0.0 0.0 0.0 0.0 0.0 0.0 0.0 0.0 0.0 0.0 0.0 0.0 0.0 0.0 0.0 0.0 0.0 0.0 0.0 0.0 0.0 0.0 0.0 0.0 0.0 0.0 0.0 0.0 0.0 0.0 0.0 0.0 0.0 0.0 0.0 0.0 0.0 0.0 0.0 0.0 0.0 0.0 0.0 0.0 0.0 0.0 0.0 0.0 0.0 0.0 0.0 0.0 0.0 0.0 0.0 0.0 0.0</float_array>
				<technique_common>
				<accessor source="#id-mesh-2-texcoord-0-array" count="34" stride="2">
					<param name="S" type="float"/>
					<param name="T" type="float"/>
				</accessor>
				</technique_common>
			</source>
			<vertices id="id-mesh-2-vertices">
				<input semantic="POSITION" source="#id-mesh-2-positions"/>
			</vertices>
			<triangles count="20">
				<input semantic="VERTEX" source="#id-mesh-2-vertices" offset="0"/>
				<input semantic="NORMAL" source="#id-mesh-2-normals" offset="0"/>
				<input semantic="TEXCOORD" source="#id-mesh-2-texcoord-0" offset="0" set="0"/>
				<input semantic="TEXTANGENT" source="#id-mesh-2-tangents" offset="0"/>
				<input semantic="TEXBINORMAL" source="#id-mesh-2-bitangents" offset="0"/>
				<p> 0 1 2 3 4 5 6 7 8 9 10 11 12 13 14 5 15 3 16 17 18 19 20 1 6 21 22 23 24 25 0 19 1 3 26 4 6 22 7 9 27 10 12 28 13 5 29 15 16 30 17 19 31 20 6 32 21 23 33 24 </p>
			</triangles>
		</mesh>
	</geometry>
	<geometry id="id-mesh-9" name="MESH.005">
		<mesh>
			<source id="id-mesh-9-positions">
				<float_array id="id-mesh-9-positions-array" count="384"> -8.0 8.0 1.0 -8.0 6.0 3.0 -8.0 6.0 0.0 -8.0 6.0 0.0 -6.0 8.0 1.0 -8.0 8.0 1.0 -6.0 6.0 3.0 -8.0 8.0 3.0 -6.0 8.0 3.0 -8.0 12.0 1.0 -8.0 8.0 3.0 -6.0 12.0 1.0 -8.0 8.0 1.0 -6.0 8.0 1.0 -6.0 8.0 1.0 -6.0 6.0 3.0 -6.0 8.0 3.0 -8.0 12.0 3.0 -6.0 12.0 1.0 -8.0 12.0 3.0 -8.0 12.0 1.0 -6.0 12.0 3.0 -9.100000381469727 1.600000023841858 1.0 -9.0 1.0 1.0 -9.100000381469727 1.0 1.0 -9.100000381469727 1.0 0.20000000298023224 -9.100000381469727 1.600000023841858 1.0 -9.100000381469727 1.0 1.0 -9.0 1.0 0.20000000298023224 -9.100000381469727 1.0 1.0 -9.0 1.0 1.0 -9.100000381469727 1.600000023841858 0.20000000298023224 -9.0 1.600000023841858 1.0 -9.100000381469727 1.600000023841858 1.0 -9.0 1.0 0.20000000298023224 -9.100000381469727 1.600000023841858 0.20000000298023224 -9.100000381469727 1.0 0.20000000298023224 -4.0 2.0 3.200000047683716 0.0 0.0 3.200000047683716 -4.0 0.0 3.200000047683716 0.0 0.0 0.20000000298023224 -4.0 0.0 3.200000047683716 0.0 0.0 3.200000047683716 0.0 2.0 0.20000000298023224 0.0 0.0 3.200000047683716 0.0 2.0 3.200000047683716 -4.0 2.0 0.20000000298023224 0.0 2.0 3.200000047683716 -4.0 2.0 3.200000047683716 0.0 0.0 0.20000000298023224 -4.0 2.0 0.20000000298023224 -4.0 0.0 0.20000000298023224 -9.0 6.0 5.400000095367432 -4.0 -1.0 5.400000095367432 -9.0 -1.0 5.400000095367432 -9.0 1.600000023841858 0.20000000298023224 -9.0 -1.0 0.0 -9.0 6.0 0.0 -9.0 1.0 1.0 -9.0 -1.0 5.400000095367432 -4.0 -1.0 0.0 -9.0 -1.0 5.400000095367432 -4.0 -1.0 5.400000095367432 -4.0 -1.0 5.400000095367432 -4.0 0.0 3.200000047683716 -4.0 -1.0 0.0 -4.0 0.0 0.20000000298023224 -4.0 2.0 0.20000000298023224 -9.0 6.0 5.400000095367432 -6.0 6.0 3.0 -4.0 6.0 5.400000095367432 -4.0 -1.0 0.0 -6.0 6.0 0.0 -9.0 -1.0 0.0 -6.0 6.0 0.0 -8.0 6.0 3.0 -8.0 12.0 3.0 -8.0 12.0 1.0 -6.0 6.0 0.0 -6.0 12.0 3.0 -6.0 12.0 3.0 -6.0 12.0 1.0 -9.100000381469727 1.600000023841858 1.0 -9.0 1.600000023841858 1.0 -9.0 1.0 1.0 -9.100000381469727 1.600000023841858 0.20000000298023224 -9.100000381469727 1.0 0.20000000298023224 -9.0 1.600000023841858 0.20000000298023224 -9.0 1.0 0.20000000298023224 -9.0 1.600000023841858 0.20000000298023224 -9.100000381469727 1.600000023841858 0.20000000298023224 0.0 2.0 3.200000047683716 -4.0 0.0 0.20000000298023224 0.0 0.0 0.20000000298023224 0.0 2.0 0.20000000298023224 0.0 2.0 0.20000000298023224 -4.0 6.0 5.400000095367432 -9.0 6.0 5.400000095367432 -9.0 1.600000023841858 1.0 -9.0 1.0 0.20000000298023224 -9.0 6.0 0.0 -9.0 1.600000023841858 1.0 -9.0 1.600000023841858 0.20000000298023224 -9.0 -1.0 0.0 -9.0 1.0 0.20000000298023224 -9.0 1.0 1.0 -9.0 -1.0 0.0 -4.0 -1.0 5.400000095367432 -4.0 6.0 5.400000095367432 -4.0 2.0 3.200000047683716 -4.0 0.0 3.200000047683716 -4.0 0.0 0.20000000298023224 -4.0 -1.0 0.0 -4.0 2.0 3.200000047683716 -4.0 6.0 5.400000095367432 -4.0 6.0 0.0 -9.0 6.0 5.400000095367432 -9.0 6.0 0.0 -8.0 6.0 3.0 -8.0 6.0 0.0 -6.0 6.0 0.0 -4.0 6.0 0.0 -9.0 6.0 5.400000095367432 -8.0 6.0 3.0 -6.0 6.0 3.0 -9.0 6.0 0.0 -8.0 6.0 0.0 -4.0 6.0 0.0</float_array>
				<technique_common>
				<accessor source="#id-mesh-9-positions-array" count="128" stride="3">
					<param name="X" type="float"/>
					<param name="Y" type="float"/>
					<param name="Z" type="float"/>
				</accessor>
				</technique_common>
			</source>
			<source id="id-mesh-9-normals">
				<float_array id="id-mesh-9-normals-array" count="384"> 1.0 0.0 0.0 1.0 0.0 0.0 1.0 0.0 0.0 0.0 -0.4472135901451111 0.8944271802902222 0.0 -0.4472135901451111 0.8944271802902222 0.0 -0.4472135901451111 0.8944271802902222 0.0 0.0 -1.0 0.0 0.0 -1.0 0.0 0.0 -1.0 1.0 0.0 0.0 1.0 0.0 0.0 0.0 0.0 1.0 0.0 0.0 1.0 0.0 0.0 1.0 -1.0 0.0 0.0 -1.0 0.0 0.0 -1.0 0.0 0.0 0.0 0.0 -1.0 0.0 -1.0 0.0 0.0 -1.0 0.0 0.0 -1.0 0.0 -1.0 0.0 0.0 0.0 0.0 -1.0 0.0 0.0 -1.0 0.0 0.0 -1.0 1.0 0.0 0.0 1.0 0.0 0.0 1.0 0.0 0.0 0.0 1.0 0.0 0.0 1.0 0.0 0.0 1.0 0.0 0.0 -1.0 0.0 0.0 -1.0 0.0 0.0 -1.0 0.0 0.0 0.0 1.0 0.0 0.0 1.0 0.0 0.0 1.0 0.0 0.0 -1.0 0.0 0.0 -1.0 0.0 0.0 -1.0 0.0 1.0 0.0 0.0 1.0 0.0 0.0 1.0 0.0 -1.0 0.0 0.0 -1.0 0.0 0.0 -1.0 0.0 0.0 0.0 -1.0 0.0 0.0 -1.0 0.0 0.0 -1.0 0.0 0.0 0.0 1.0 0.0 0.0 1.0 0.0 0.0 1.0 0.0 0.0 -1.0 0.0 0.0 -1.0 0.0 0.0 -1.0 1.0 0.0 0.0 1.0 0.0 0.0 1.0 0.0 0.0 1.0 0.0 0.0 1.0 0.0 0.0 0.0 1.0 0.0 0.0 1.0 0.0 0.0 1.0 0.0 -1.0 0.0 0.0 -1.0 0.0 0.0 -1.0 0.0 0.0 -1.0 0.0 0.0 -1.0 0.0 0.0 0.0 -1.0 0.0 0.0 -1.0 0.0 0.0 -1.0 0.0 0.0 0.0 1.0 0.0 0.0 1.0 0.0 0.0 1.0 0.0 -0.4472135901451111 0.8944271802902222 0.0 0.0 -1.0 1.0 0.0 0.0 0.0 0.0 1.0 -1.0 0.0 0.0 0.0 0.0 -1.0 0.0 -1.0 0.0 -1.0 0.0 0.0 0.0 0.0 -0.9999999403953552 0.0 0.0 -0.9999999403953552 0.0 0.0 -0.9999999403953552 1.0 0.0 0.0 0.0 1.0 0.0 0.0 -1.0 0.0 0.0 0.0 0.9999999403953552 0.0 0.0 0.9999999403953552 0.0 0.0 0.9999999403953552 0.0 0.0 -1.0 0.0 1.0 0.0 -1.0 0.0 0.0 0.0 -1.0 0.0 0.0 0.0 1.0 0.0 0.0 -1.0 1.0 0.0 0.0 1.0 0.0 0.0 1.0 0.0 0.0 1.0 -2.709302009407111e-07 0.0 1.0 -2.709302009407111e-07 0.0 1.0 -2.709302009407111e-07 0.0 1.0 5.960464477539062e-07 0.0 1.0 5.960464477539062e-07 0.0 1.0 5.960464477539062e-07 0.0 0.0 1.0 0.0 -0.9999999403953552 0.0 0.0 -0.9999999403953552 0.0 0.0 -0.9999999403953552 0.0 0.0 -1.0 1.1920928955078125e-07 0.0 -1.0 1.1920928955078125e-07 0.0 -1.0 1.1920928955078125e-07 0.0 -1.0 0.0 0.0 -1.0 0.0 0.0 -1.0 0.0 0.0 0.0 -1.0 0.0 0.0 -1.0 0.0 0.0 -1.0 0.0 0.0 -1.0 0.0 0.0 -1.0 0.0 0.0 -1.0 0.0 0.0 -0.9999999403953552 0.0 0.0 -0.9999999403953552 0.0 0.0 -0.9999999403953552 0.0 0.0 0.0 1.0 0.0 0.0 1.0 0.0 0.0 1.0</float_array>
				<technique_common>
				<accessor source="#id-mesh-9-normals-array" count="128" stride="3">
					<param name="X" type="float"/>
					<param name="Y" type="float"/>
					<param name="Z" type="float"/>
				</accessor>
				</technique_common>
			</source>
			<source id="id-mesh-9-tangents">
				<float_array id="id-mesh-9-tangents-array" count="384"> 0.0 1.0 0.0 0.0 1.0 0.0 0.0 1.0 0.0 1.0 0.0 0.0 1.0 0.0 0.0 1.0 0.0 0.0 1.0 0.0 0.0 1.0 0.0 0.0 1.0 0.0 0.0 0.0 1.0 0.0 0.0 1.0 0.0 1.0 0.0 0.0 1.0 0.0 0.0 1.0 0.0 0.0 0.0 -1.0 0.0 0.0 -1.0 0.0 0.0 -1.0 0.0 1.0 0.0 0.0 1.0 0.0 0.0 1.0 0.0 0.0 1.0 0.0 0.0 0.0 -1.0 0.0 1.0 0.0 0.0 1.0 0.0 0.0 1.0 0.0 0.0 0.0 1.0 0.0 0.0 1.0 0.0 0.0 1.0 0.0 -1.0 0.0 0.0 -1.0 0.0 0.0 -1.0 0.0 0.0 1.0 0.0 0.0 1.0 0.0 0.0 1.0 0.0 0.0 1.0 0.0 0.0 1.0 0.0 0.0 1.0 0.0 0.0 1.0 0.0 0.0 1.0 0.0 0.0 1.0 0.0 0.0 -1.0 0.0 0.0 -1.0 0.0 0.0 -1.0 0.0 0.0 0.0 -1.0 0.0 0.0 -1.0 0.0 0.0 -1.0 0.0 1.0 0.0 0.0 1.0 0.0 0.0 1.0 0.0 0.0 1.0 0.0 0.0 1.0 0.0 0.0 1.0 0.0 0.0 1.0 0.0 0.0 1.0 0.0 0.0 1.0 0.0 0.0 0.0 1.0 0.0 0.0 1.0 0.0 0.0 1.0 0.0 0.0 1.0 0.0 0.0 1.0 0.0 -1.0 0.0 0.0 -1.0 0.0 0.0 -1.0 0.0 0.0 0.0 -1.0 0.0 0.0 -1.0 0.0 0.0 -1.0 0.0 0.0 -1.0 0.0 0.0 -1.0 0.0 0.9999999403953552 0.0 0.0 1.0 0.0 0.0 1.0 0.0 0.0 0.9999999403953552 0.0 0.0 1.0 0.0 0.0 1.0 0.0 0.0 1.0 0.0 0.0 1.0 0.0 0.0 0.0 1.0 0.0 1.0 0.0 0.0 0.0 -1.0 0.0 1.0 0.0 0.0 1.0 0.0 0.0 0.0 -1.0 0.0 1.0 0.0 0.0 1.0 0.0 0.0 1.0 0.0 0.0 0.0 1.0 0.0 -1.0 0.0 0.0 1.0 0.0 0.0 1.0 0.0 0.0 1.0 0.0 0.0 1.0 0.0 0.0 1.0 0.0 0.0 -1.0 0.0 0.0 0.0 -1.0 0.0 1.0 0.0 0.0 1.0 0.0 0.0 1.0 0.0 0.0 0.0 1.0 0.0 0.0 0.9999999403953552 0.0 0.0 1.0 0.0 2.709302009407111e-07 1.0 0.0 2.709302009407111e-07 1.0 0.0 2.709302009407111e-07 1.0 0.0 -5.960464477539062e-07 1.0 0.0 -5.960465045973251e-07 1.0 0.0 -5.960464477539062e-07 1.0 0.0 -1.0 0.0 0.0 0.0 -1.0 0.0 0.0 -1.0 0.0 0.0 -1.0 0.0 -1.1920928955078125e-07 -1.0 0.0 -1.1920928955078125e-07 -1.0 0.0 -1.1920928955078125e-07 -1.0 0.0 0.0 -1.0 0.0 0.0 -0.9999999403953552 0.0 0.0 -1.0 0.0 1.0 0.0 0.0 1.0 0.0 0.0 1.0 0.0 0.0 1.0 0.0 0.0 1.0 0.0 0.0 1.0 0.0 0.0 1.0 0.0 0.0 1.0 0.0 0.0 0.9999999403953552 0.0 0.0 1.0 0.0 0.0 1.0 0.0 0.0 1.0 0.0 0.0</float_array>
				<technique_common>
				<accessor source="#id-mesh-9-tangents-array" count="128" stride="3">
					<param name="X" type="float"/>
					<param name="Y" type="float"/>
					<param name="Z" type="float"/>
				</accessor>
				</technique_common>
			</source>
			<source id="id-mesh-9-bitangents">
				<float_array id="id-mesh-9-bitangents-array" count="384"> 0.0 0.0 1.0 0.0 0.0 1.0 0.0 0.0 1.0 -0.0 0.8944271802902222 0.4472135901451111 -0.0 0.8944271802902222 0.4472135901451111 -0.0 0.8944271802902222 0.4472135901451111 0.0 -1.0 0.0 0.0 -1.0 0.0 0.0 -1.0 0.0 0.0 0.0 1.0 0.0 0.0 1.0 0.0 1.0 0.0 0.0 1.0 0.0 0.0 1.0 0.0 0.0 0.0 1.0 0.0 0.0 1.0 0.0 0.0 1.0 0.0 -1.0 0.0 -0.0 0.0 1.0 -0.0 0.0 1.0 -0.0 0.0 1.0 0.0 0.0 1.0 0.0 -1.0 0.0 0.0 -1.0 0.0 0.0 -1.0 0.0 0.0 0.0 1.0 0.0 0.0 1.0 0.0 0.0 1.0 0.0 -0.0 1.0 0.0 -0.0 1.0 0.0 -0.0 1.0 -0.0 0.0 1.0 -0.0 0.0 1.0 -0.0 0.0 1.0 0.0 1.0 0.0 0.0 1.0 0.0 0.0 1.0 0.0 0.0 -1.0 0.0 0.0 -1.0 0.0 0.0 -1.0 0.0 0.0 -0.0 1.0 0.0 -0.0 1.0 0.0 -0.0 1.0 0.0 0.0 1.0 0.0 0.0 1.0 0.0 0.0 1.0 -0.0 0.0 1.0 -0.0 0.0 1.0 -0.0 0.0 1.0 0.0 1.0 0.0 0.0 1.0 0.0 0.0 1.0 0.0 0.0 -1.0 0.0 0.0 -1.0 0.0 0.0 -1.0 0.0 0.0 0.0 1.0 0.0 0.0 1.0 0.0 0.0 1.0 0.0 0.0 1.0 0.0 0.0 1.0 0.0 -0.0 1.0 0.0 -0.0 1.0 0.0 -0.0 1.0 0.0 0.0 1.0 0.0 0.0 1.0 0.0 0.0 1.0 0.0 0.0 1.0 0.0 0.0 1.0 -0.0 0.0 0.9999999403953552 -0.0 0.0 1.0 -0.0 0.0 1.0 0.0 0.9999999403953552 0.0 0.0 1.0 0.0 0.0 1.0 0.0 -0.0 0.8944271802902222 0.4472135901451111 0.0 -1.0 0.0 0.0 0.0 1.0 0.0 1.0 0.0 0.0 0.0 1.0 0.0 -1.0 0.0 -0.0 0.0 1.0 0.0 0.0 1.0 0.0 -0.9999999403953552 0.0 0.0 -0.9999999403953552 0.0 0.0 -0.9999999403953552 0.0 0.0 0.0 1.0 0.0 -0.0 1.0 -0.0 0.0 1.0 0.0 0.9999999403953552 0.0 0.0 0.9999999403953552 0.0 0.0 0.9999999403953552 0.0 0.0 -1.0 0.0 0.0 -0.0 1.0 0.0 0.0 1.0 -0.0 0.0 1.0 0.0 1.0 0.0 0.0 -1.0 0.0 0.0 0.0 1.0 0.0 0.0 0.9999999403953552 0.0 0.0 1.0 -0.0 0.0 1.0 -0.0 0.0 1.0 -0.0 0.0 1.0 0.0 -0.0 1.0 0.0 -0.0 1.0 0.0 -0.0 1.0 0.0 -0.0 1.0 0.0 0.0 0.9999999403953552 0.0 0.0 0.9999999403953552 0.0 0.0 0.9999999403953552 0.0 0.0 1.0 0.0 0.0 1.0 0.0 0.0 1.0 0.0 0.0 1.0 0.0 0.0 0.9999999403953552 0.0 0.0 1.0 -0.0 0.0 1.0 -0.0 0.0 1.0 -0.0 0.0 1.0 -0.0 0.0 1.0 -0.0 0.0 1.0 -0.0 0.0 1.0 -0.0 0.0 0.9999999403953552 -0.0 0.0 0.9999999403953552 -0.0 0.0 0.9999998807907104 0.0 1.0 0.0 0.0 1.0 0.0 0.0 1.0 0.0</float_array>
				<technique_common>
				<accessor source="#id-mesh-9-bitangents-array" count="128" stride="3">
					<param name="X" type="float"/>
					<param name="Y" type="float"/>
					<param name="Z" type="float"/>
				</accessor>
				</technique_common>
			</source>
			<source id="id-mesh-9-texcoord-0">
				<float_array id="id-mesh-9-texcoord-0-array" count="256"> 16.0 2.0 12.0 6.0 12.0 0.0 -16.0 12.0 -12.0 16.0 -16.0 16.0 -12.0 -12.0 -16.0 -16.0 -12.0 -16.0 24.0 2.0 16.0 6.0 -12.0 24.0 -16.0 16.0 -12.0 16.0 -16.0 2.0 -12.0 6.0 -16.0 6.0 -16.0 -24.0 -12.0 2.0 -16.0 6.0 -16.0 2.0 -24.0 6.0 -18.200000762939453 -3.200000047683716 -18.0 -2.0 -18.200000762939453 -2.0 2.0 0.4000000059604645 3.200000047683716 2.0 2.0 2.0 18.0 0.4000000059604645 18.200000762939453 2.0 18.0 2.0 -18.200000762939453 0.4000000059604645 -18.0 2.0 -18.200000762939453 2.0 -18.0 2.0 -18.200000762939453 3.200000047683716 -18.200000762939453 2.0 -8.0 -4.0 0.0 -0.0 -8.0 -0.0 -0.0 0.4000000059604645 8.0 6.400000095367432 -0.0 6.400000095367432 -4.0 0.4000000059604645 -0.0 6.400000095367432 -4.0 6.400000095367432 -8.0 0.4000000059604645 0.0 6.400000095367432 -8.0 6.400000095367432 0.0 0.0 -8.0 4.0 -8.0 0.0 -18.0 -12.0 -8.0 2.0 -18.0 2.0 3.200000047683716 0.4000000059604645 -2.0 0.0 12.0 0.0 2.0 2.0 -2.0 10.800000190734863 8.0 0.0 18.0 10.800000190734863 8.0 10.800000190734863 2.0 10.800000190734863 -0.0 6.400000095367432 2.0 0.0 -0.0 0.4000000059604645 -4.0 0.4000000059604645 -18.0 10.800000190734863 -12.0 6.0 -8.0 10.800000190734863 -8.0 -2.0 -12.0 12.0 -18.0 -2.0 -12.0 12.0 -16.0 -12.0 24.0 6.0 -16.0 24.0 -12.0 0.0 -12.0 -24.0 -12.0 6.0 -24.0 2.0 -18.200000762939453 -3.200000047683716 -18.0 -3.200000047683716 -18.0 -2.0 3.200000047683716 0.4000000059604645 18.200000762939453 0.4000000059604645 -18.0 0.4000000059604645 -18.0 2.0 -18.0 3.200000047683716 -18.200000762939453 3.200000047683716 0.0 -4.0 8.0 0.4000000059604645 -0.0 0.4000000059604645 0.0 0.4000000059604645 0.0 4.0 -8.0 -12.0 12.0 10.800000190734863 3.200000047683716 2.0 2.0 0.4000000059604645 12.0 0.0 3.200000047683716 2.0 3.200000047683716 0.4000000059604645 -2.0 0.0 2.0 0.4000000059604645 2.0 2.0 18.0 0.0 2.0 10.800000190734863 -12.0 10.800000190734863 -4.0 6.400000095367432 -0.0 6.400000095367432 -0.0 0.4000000059604645 2.0 0.0 -4.0 6.400000095367432 -12.0 10.800000190734863 -12.0 0.0 -18.0 10.800000190734863 -18.0 0.0 -16.0 6.0 -16.0 0.0 -12.0 0.0 -8.0 0.0 -18.0 10.800000190734863 -16.0 6.0 -12.0 6.0 -18.0 12.0 -16.0 12.0 -8.0 12.0</float_array>
				<technique_common>
				<accessor source="#id-mesh-9-texcoord-0-array" count="128" stride="2">
					<param name="S" type="float"/>
					<param name="T" type="float"/>
				</accessor>
				</technique_common>
			</source>
			<vertices id="id-mesh-9-vertices">
				<input semantic="POSITION" source="#id-mesh-9-positions"/>
			</vertices>
			<triangles count="32" material="id-trimat-10">
				<input semantic="VERTEX" source="#id-mesh-9-vertices" offset="0"/>
				<input semantic="NORMAL" source="#id-mesh-9-normals" offset="0"/>
				<input semantic="TEXCOORD" source="#id-mesh-9-texcoord-0" offset="0" set="0"/>
				<input semantic="TEXTANGENT" source="#id-mesh-9-tangents" offset="0"/>
				<input semantic="TEXBINORMAL" source="#id-mesh-9-bitangents" offset="0"/>
				<p> 0 1 2 3 4 5 6 7 8 9 10 0 11 12 13 14 15 16 17 8 7 18 19 20 21 14 16 22 23 24 25 26 27 28 29 30 31 32 33 34 35 36 37 38 39 52 53 54 0 10 1 3 74 4 6 75 7 9 76 10 11 77 12 14 78 15 17 79 8 18 80 19 21 81 14 82 83 84 25 85 26 28 86 29 31 87 32 88 89 90 37 91 38 52 96 53 </p>
			</triangles>
			<triangles count="6" material="id-trimat-11">
				<input semantic="VERTEX" source="#id-mesh-9-vertices" offset="0"/>
				<input semantic="NORMAL" source="#id-mesh-9-normals" offset="0"/>
				<input semantic="TEXCOORD" source="#id-mesh-9-texcoord-0" offset="0" set="0"/>
				<input semantic="TEXTANGENT" source="#id-mesh-9-tangents" offset="0"/>
				<input semantic="TEXBINORMAL" source="#id-mesh-9-bitangents" offset="0"/>
				<p> 49 50 51 71 72 73 49 95 50 125 73 126 71 127 72 126 73 72 </p>
			</triangles>
			<triangles count="30" material="id-trimat-12">
				<input semantic="VERTEX" source="#id-mesh-9-vertices" offset="0"/>
				<input semantic="NORMAL" source="#id-mesh-9-normals" offset="0"/>
				<input semantic="TEXCOORD" source="#id-mesh-9-texcoord-0" offset="0" set="0"/>
				<input semantic="TEXTANGENT" source="#id-mesh-9-tangents" offset="0"/>
				<input semantic="TEXBINORMAL" source="#id-mesh-9-bitangents" offset="0"/>
				<p> 40 41 42 43 44 45 46 47 48 55 56 57 56 58 59 60 61 62 63 64 65 65 66 67 68 69 70 40 92 41 43 93 44 46 94 47 57 97 98 55 99 56 100 101 102 97 59 98 103 104 105 58 98 59 60 106 61 107 108 109 110 111 112 63 113 64 113 114 115 115 65 67 67 113 115 116 117 118 117 119 118 120 121 69 122 123 124 69 121 70 </p>
			</triangles>
		</mesh>
	</geometry>
	<geometry id="id-mesh-13" name="sector">
		<mesh>
			<source id="id-mesh-13-positions">
				<float_array id="id-mesh-13-positions-array" count="72"> -4.0 -1.0 5.399998664855957 -9.0 6.0 5.399998664855957 -9.0 -1.0 5.399998664855957 -9.0 6.0 0.0 -4.0 -1.0 0.0 -9.0 -1.0 0.0 -9.0 6.0 5.399998664855957 -9.0 -1.0 0.0 -9.0 -1.0 5.399998664855957 -9.0 -1.0 5.399998664855957 -4.0 -1.0 0.0 -4.0 -1.0 5.399998664855957 -4.0 -1.0 5.399998664855957 -4.0 6.0 0.0 -4.0 6.0 5.399998664855957 -4.0 6.0 5.399998664855957 -9.0 6.0 0.0 -9.0 6.0 5.399998664855957 -4.0 6.0 5.399998664855957 -4.0 6.0 0.0 -9.0 6.0 0.0 -9.0 -1.0 0.0 -4.0 -1.0 0.0 -4.0 6.0 0.0</float_array>
				<technique_common>
				<accessor source="#id-mesh-13-positions-array" count="24" stride="3">
					<param name="X" type="float"/>
					<param name="Y" type="float"/>
					<param name="Z" type="float"/>
				</accessor>
				</technique_common>
			</source>
			<source id="id-mesh-13-normals">
				<float_array id="id-mesh-13-normals-array" count="72"> 0.0 0.0 1.0 0.0 0.0 1.0 0.0 0.0 1.0 0.0 0.0 -1.0 0.0 0.0 -1.0 0.0 0.0 -1.0 -1.0 0.0 0.0 -1.0 0.0 0.0 -1.0 0.0 0.0 0.0 -1.0 0.0 0.0 -1.0 0.0 0.0 -1.0 0.0 1.0 0.0 0.0 1.0 0.0 0.0 1.0 0.0 0.0 0.0 1.0 0.0 0.0 1.0 0.0 0.0 1.0 0.0 0.0 0.0 1.0 0.0 0.0 -1.0 -1.0 0.0 0.0 0.0 -1.0 0.0 1.0 0.0 0.0 0.0 1.0 0.0</float_array>
				<technique_common>
				<accessor source="#id-mesh-13-normals-array" count="24" stride="3">
					<param name="X" type="float"/>
					<param name="Y" type="float"/>
					<param name="Z" type="float"/>
				</accessor>
				</technique_common>
			</source>
			<vertices id="id-mesh-13-vertices">
				<input semantic="POSITION" source="#id-mesh-13-positions"/>
			</vertices>
			<triangles count="2" material="id-trimat-14">
				<input semantic="VERTEX" source="#id-mesh-13-vertices" offset="0"/>
				<input semantic="NORMAL" source="#id-mesh-13-normals" offset="0"/>
				<p> 0 1 2 0 18 1 </p>
			</triangles>
			<triangles count="2" material="id-trimat-15">
				<input semantic="VERTEX" source="#id-mesh-13-vertices" offset="0"/>
				<input semantic="NORMAL" source="#id-mesh-13-normals" offset="0"/>
				<p> 3 4 5 3 19 4 </p>
			</triangles>
			<triangles count="8" material="id-trimat-16">
				<input semantic="VERTEX" source="#id-mesh-13-vertices" offset="0"/>
				<input semantic="NORMAL" source="#id-mesh-13-normals" offset="0"/>
				<p> 6 7 8 9 10 11 12 13 14 15 16 17 6 20 7 9 21 10 12 22 13 15 23 16 </p>
			</triangles>
		</mesh>
	</geometry>
	<geometry id="id-mesh-17" name="sector.001">
		<mesh>
			<source id="id-mesh-17-positions">
				<float_array id="id-mesh-17-positions-array" count="72"> 0.0 0.0 3.1999998092651367 -4.0 2.0 3.1999998092651367 -4.0 0.0 3.1999998092651367 -4.0 2.0 0.20000000298023224 0.0 0.0 0.20000000298023224 -4.0 0.0 0.20000000298023224 -4.0 2.0 3.1999998092651367 -4.0 0.0 0.20000000298023224 -4.0 0.0 3.1999998092651367 -4.0 0.0 3.1999998092651367 0.0 0.0 0.20000000298023224 0.0 0.0 3.1999998092651367 0.0 0.0 3.1999998092651367 0.0 2.0 0.20000000298023224 0.0 2.0 3.1999998092651367 0.0 2.0 3.1999998092651367 -4.0 2.0 0.20000000298023224 -4.0 2.0 3.1999998092651367 0.0 2.0 3.1999998092651367 0.0 2.0 0.20000000298023224 -4.0 2.0 0.20000000298023224 -4.0 0.0 0.20000000298023224 0.0 0.0 0.20000000298023224 0.0 2.0 0.20000000298023224</float_array>
				<technique_common>
				<accessor source="#id-mesh-17-positions-array" count="24" stride="3">
					<param name="X" type="float"/>
					<param name="Y" type="float"/>
					<param name="Z" type="float"/>
				</accessor>
				</technique_common>
			</source>
			<source id="id-mesh-17-normals">
				<float_array id="id-mesh-17-normals-array" count="72"> 0.0 0.0 1.0 0.0 0.0 1.0 0.0 0.0 1.0 0.0 0.0 -1.0 0.0 0.0 -1.0 0.0 0.0 -1.0 -1.0 0.0 0.0 -1.0 0.0 0.0 -1.0 0.0 0.0 0.0 -1.0 0.0 0.0 -1.0 0.0 0.0 -1.0 0.0 1.0 0.0 0.0 1.0 0.0 0.0 1.0 0.0 0.0 0.0 1.0 0.0 0.0 1.0 0.0 0.0 1.0 0.0 0.0 0.0 1.0 0.0 0.0 -1.0 -1.0 0.0 0.0 0.0 -1.0 0.0 1.0 0.0 0.0 0.0 1.0 0.0</float_array>
				<technique_common>
				<accessor source="#id-mesh-17-normals-array" count="24" stride="3">
					<param name="X" type="float"/>
					<param name="Y" type="float"/>
					<param name="Z" type="float"/>
				</accessor>
				</technique_common>
			</source>
			<vertices id="id-mesh-17-vertices">
				<input semantic="POSITION" source="#id-mesh-17-positions"/>
			</vertices>
			<triangles count="2" material="id-trimat-18">
				<input semantic="VERTEX" source="#id-mesh-17-vertices" offset="0"/>
				<input semantic="NORMAL" source="#id-mesh-17-normals" offset="0"/>
				<p> 0 1 2 0 18 1 </p>
			</triangles>
			<triangles count="2" material="id-trimat-19">
				<input semantic="VERTEX" source="#id-mesh-17-vertices" offset="0"/>
				<input semantic="NORMAL" source="#id-mesh-17-normals" offset="0"/>
				<p> 3 4 5 3 19 4 </p>
			</triangles>
			<triangles count="8" material="id-trimat-20">
				<input semantic="VERTEX" source="#id-mesh-17-vertices" offset="0"/>
				<input semantic="NORMAL" source="#id-mesh-17-normals" offset="0"/>
				<p> 6 7 8 9 10 11 12 13 14 15 16 17 6 20 7 9 21 10 12 22 13 15 23 16 </p>
			</triangles>
		</mesh>
	</geometry>
	<geometry id="id-mesh-21" name="sector.006">
		<mesh>
			<source id="id-mesh-21-positions">
				<float_array id="id-mesh-21-positions-array" count="84"> -9.0 1.0 1.0 -9.100000381469727 1.5999999046325684 1.0 -9.100000381469727 1.0 1.0 -9.100000381469727 1.5999999046325684 0.19999980926513672 -9.0 1.0 0.19999980926513672 -9.100000381469727 1.0 0.19999980926513672 -9.100000381469727 1.5999999046325684 1.0 -9.100000381469727 1.0 0.19999980926513672 -9.100000381469727 1.0 1.0 -9.100000381469727 1.0 1.0 -9.0 1.0 0.19999980926513672 -9.0 1.0 1.0 -9.0 1.0 1.0 -9.0 1.5999999046325684 0.19999980926513672 -9.0 1.5999999046325684 1.0 -9.0 1.5999999046325684 1.0 -9.100000381469727 1.5999999046325684 0.19999980926513672 -9.100000381469727 1.5999999046325684 1.0 -9.0 1.0 1.0 -9.0 1.5999999046325684 1.0 -9.100000381469727 1.5999999046325684 1.0 -9.100000381469727 1.5999999046325684 0.19999980926513672 -9.0 1.5999999046325684 0.19999980926513672 -9.0 1.0 0.19999980926513672 -9.100000381469727 1.5999999046325684 0.19999980926513672 -9.100000381469727 1.0 0.19999980926513672 -9.0 1.0 0.19999980926513672 -9.0 1.5999999046325684 0.19999980926513672</float_array>
				<technique_common>
				<accessor source="#id-mesh-21-positions-array" count="28" stride="3">
					<param name="X" type="float"/>
					<param name="Y" type="float"/>
					<param name="Z" type="float"/>
				</accessor>
				</technique_common>
			</source>
			<source id="id-mesh-21-normals">
				<float_array id="id-mesh-21-normals-array" count="84"> 0.0 0.0 1.0 0.0 0.0 1.0 0.0 0.0 1.0 0.0 0.0 -1.0 0.0 0.0 -1.0 0.0 0.0 -1.0 -1.0 0.0 0.0 -1.0 0.0 0.0 -1.0 0.0 0.0 0.0 -1.0 0.0 0.0 -1.0 0.0 0.0 -1.0 0.0 1.0 0.0 0.0 1.0 0.0 0.0 1.0 0.0 0.0 0.0 1.0 0.0 0.0 1.0 0.0 0.0 1.0 0.0 0.0 0.0 0.9999999403953552 0.0 0.0 0.9999999403953552 0.0 0.0 0.9999999403953552 0.0 0.0 -0.9999999403953552 0.0 0.0 -0.9999999403953552 0.0 0.0 -0.9999999403953552 -1.0 0.0 0.0 0.0 -1.0 0.0 1.0 0.0 0.0 0.0 1.0 0.0</float_array>
				<technique_common>
				<accessor source="#id-mesh-21-normals-array" count="28" stride="3">
					<param name="X" type="float"/>
					<param name="Y" type="float"/>
					<param name="Z" type="float"/>
				</accessor>
				</technique_common>
			</source>
			<vertices id="id-mesh-21-vertices">
				<input semantic="POSITION" source="#id-mesh-21-positions"/>
			</vertices>
			<triangles count="2" material="id-trimat-22">
				<input semantic="VERTEX" source="#id-mesh-21-vertices" offset="0"/>
				<input semantic="NORMAL" source="#id-mesh-21-normals" offset="0"/>
				<p> 0 1 2 18 19 20 </p>
			</triangles>
			<triangles count="2" material="id-trimat-23">
				<input semantic="VERTEX" source="#id-mesh-21-vertices" offset="0"/>
				<input semantic="NORMAL" source="#id-mesh-21-normals" offset="0"/>
				<p> 3 4 5 21 22 23 </p>
			</triangles>
			<triangles count="8" material="id-trimat-24">
				<input semantic="VERTEX" source="#id-mesh-21-vertices" offset="0"/>
				<input semantic="NORMAL" source="#id-mesh-21-normals" offset="0"/>
				<p> 6 7 8 9 10 11 12 13 14 15 16 17 6 24 7 9 25 10 12 26 13 15 27 16 </p>
			</triangles>
		</mesh>
	</geometry>
</library_geometries>
<library_visual_scenes>
	<visual_scene id="id-scene-1" name="scene">
		<node id="MESH" name="MESH" type="NODE">
			<matrix sid="transform"> 1.0 0.0 0.0 0.0 0.0 1.0 0.0 0.0 0.0 0.0 1.0 0.0 0.0 0.0 0.0 1.0  </matrix>
			<instance_geometry url="#id-mesh-2">
			</instance_geometry>
		</node>
		<node id="Map" name="Map" type="NODE">
			<matrix sid="transform"> 1.0 0.0 0.0 0.0 0.0 1.0 0.0 0.0 0.0 0.0 1.0 0.0 0.0 0.0 0.0 1.0  </matrix>
			<instance_geometry url="#id-mesh-9">
				<bind_material>
					<technique_common>
						<instance_material symbol="id-trimat-10" target="#id-material-4"/>
						<instance_material symbol="id-trimat-11" target="#id-material-8"/>
						<instance_material symbol="id-trimat-12" target="#id-material-6"/>
					</technique_common>
				</bind_material>
			</instance_geometry>
		</node>
		<node id="sector" name="sector" type="NODE">
			<matrix sid="transform"> 1.0 0.0 0.0 0.0 0.0 1.0 0.0 0.0 0.0 0.0 1.0 0.0 0.0 0.0 0.0 1.0  </matrix>
			<instance_geometry url="#id-mesh-13">
				<bind_material>
					<technique_common>
						<instance_material symbol="id-trimat-14" target="#id-material-4"/>
						<instance_material symbol="id-trimat-15" target="#id-material-8"/>
						<instance_material symbol="id-trimat-16" target="#id-material-6"/>
					</technique_common>
				</bind_material>
			</instance_geometry>
		</node>
		<node id="sector.001" name="sector.001" type="NODE">
			<matrix sid="transform"> 1.0 0.0 0.0 0.0 0.0 1.0 0.0 0.0 0.0 0.0 1.0 0.0 0.0 0.0 0.0 1.0  </matrix>
			<instance_geometry url="#id-mesh-17">
				<bind_material>
					<technique_common>
						<instance_material symbol="id-trimat-18" target="#id-material-4"/>
						<instance_material symbol="id-trimat-19" target="#id-material-8"/>
						<instance_material symbol="id-trimat-20" target="#id-material-6"/>
					</technique_common>
				</bind_material>
			</instance_geometry>
		</node>
		<node id="sector.002" name="sector.002" type="NODE">
			<matrix sid="transform"> 1.0 0.0 0.0 0.0 0.0 1.0 0.0 0.0 0.0 0.0 1.0 0.0 0.0 0.0 0.0 1.0  </matrix>
			<instance_geometry url="#id-mesh-21">
				<bind_material>
					<technique_common>
						<instance_material symbol="id-trimat-22" target="#id-material-4"/>
						<instance_material symbol="id-trimat-23" target="#id-material-4"/>
						<instance_material symbol="id-trimat-24" target="#id-material-4"/>
					</technique_common>
				</bind_material>
			</instance_geometry>
		</node>
	</visual_scene>
</library_visual_scenes>
<scene>
	<instance_visual_scene url="#id-scene-1" />
</scene>
</COLLADA>
